meta_analysis_2
…
raw_analysis_data <- df %>% 
  mutate(
    item = 'correlation',
    author_year = str_c(author, year, sep = ", ")
  ) %>% 
  select(
    author_year, item, .value = correlation,  .lower = lower, .upper = upper
  ) %>% 
  mutate(author_year = fct_inorder(author_year)) 
raw_analysis_data

## # A tibble: 124 x 5
##    author_year       item        .value   .lower .upper
##    <fct>             <chr>        <dbl>    <dbl>  <dbl>
##  1 Gao*1_1, 2020     correlation  0.2    0.119    0.279
##  2 Gao*1_2, 2020     correlation  0.05  -0.0275   0.127
##  3 Gao*1_3, 2020     correlation  0.09   0.00779  0.171
##  4 Zhen, 2019        correlation  0.22   0.192    0.248
##  5 Yayan, 2018       correlation  0.393  0.346    0.438
##  6 Volungis, 2019    correlation  0.31   0.158    0.448
##  7 Shen, 2019        correlation  0.24   0.160    0.317
##  8 Mosalanejad, 2019 correlation  0.053 -0.0760   0.180
##  9 Mahapatra, 2019   correlation  0.29   0.188    0.386
## 10 Liu, 2019         correlation  0.39   0.333    0.444
## # ... with 114 more rows
…
post_data

## # A tibble: 124 x 5
##    author_year       item          .value   .lower .upper
##    <fct>             <chr>          <dbl>    <dbl>  <dbl>
##  1 Gao*1_1, 2020     Random effect 0.205   0.128    0.281
##  2 Gao*1_2, 2020     Random effect 0.0682 -0.00486  0.140
##  3 Gao*1_3, 2020     Random effect 0.106   0.0272   0.184
##  4 Zhen, 2019        Random effect 0.220   0.192    0.249
##  5 Yayan, 2018       Random effect 0.387   0.342    0.431
##  6 Volungis, 2019    Random effect 0.291   0.165    0.411
##  7 Shen, 2019        Random effect 0.241   0.165    0.316
##  8 Mosalanejad, 2019 Random effect 0.0954 -0.0206   0.209
##  9 Mahapatra, 2019   Random effect 0.283   0.189    0.371
## 10 Liu, 2019         Random effect 0.381   0.325    0.434
## # ... with 114 more rows
…
